Chapter 5 Package development | Reproducible Analytical Pipelines - Master’s of Data Science
…
And to select for communes, we need to not select cantons nor the whole country:

clean_unemp(unemp_2013,
            !grepl("(Canton|Grand-D.*)", commune),
            active_population)

## # A tibble: 105 × 3
##     year commune       active_population
##    <dbl> <chr>                     <dbl>
##  1  2013 Dippach                    1817
##  2  2013 Garnich                     869
##  3  2013 Hobscheid                  1505
##  4  2013 Kaerjeng                   4355
##  5  2013 Kehlen                     2244
##  6  2013 Koerich                    1016
##  7  2013 Kopstal                    1284
##  8  2013 Mamer                      3209
##  9  2013 Septfontaines               399
## 10  2013 Steinfort                  2175
## # … with 95 more rows
…
